<?xml version="1.0" encoding="UTF-8" standalone="no"?>
<!-- Created with Inkscape (http://www.inkscape.org/) -->

<svg
   xmlns:dc="http://purl.org/dc/elements/1.1/"
   xmlns:cc="http://creativecommons.org/ns#"
   xmlns:rdf="http://www.w3.org/1999/02/22-rdf-syntax-ns#"
   xmlns:svg="http://www.w3.org/2000/svg"
   xmlns="http://www.w3.org/2000/svg"
   xmlns:xlink="http://www.w3.org/1999/xlink"
   xmlns:sodipodi="http://sodipodi.sourceforge.net/DTD/sodipodi-0.dtd"
   xmlns:inkscape="http://www.inkscape.org/namespaces/inkscape"
   width="210mm"
   height="297mm"
   viewBox="0 0 210 297"
   version="1.1"
   id="svg8"
   inkscape:version="0.92.4 (unknown)"
   sodipodi:docname="arte.svg">
  <defs
     id="defs2" />
  <sodipodi:namedview
     id="base"
     pagecolor="#ffffff"
     bordercolor="#666666"
     borderopacity="1.0"
     inkscape:pageopacity="0.0"
     inkscape:pageshadow="2"
     inkscape:zoom="0.35"
     inkscape:cx="78.025099"
     inkscape:cy="567.16493"
     inkscape:document-units="mm"
     inkscape:current-layer="g134"
     showgrid="false"
     inkscape:window-width="1366"
     inkscape:window-height="705"
     inkscape:window-x="0"
     inkscape:window-y="30"
     inkscape:window-maximized="1"
     showguides="true"
     inkscape:guide-bbox="true" />
  <metadata
     id="metadata5">
    <rdf:RDF>
      <cc:Work
         rdf:about="">
        <dc:format>image/svg+xml</dc:format>
        <dc:type
           rdf:resource="http://purl.org/dc/dcmitype/StillImage" />
        <dc:title />
      </cc:Work>
    </rdf:RDF>
  </metadata>
  <g
     inkscape:label="Layer 1"
     inkscape:groupmode="layer"
     id="layer1">
    <text
       id="text22"
       y="245.68425"
       x="57.195675"
       style="font-style:normal;font-variant:normal;font-weight:normal;font-stretch:normal;font-size:10.58333302px;line-height:1.25;font-family:'Delius Unicase';-inkscape-font-specification:'Delius Unicase';letter-spacing:0px;word-spacing:0px;fill:#000000;fill-opacity:1;stroke:none;stroke-width:0.26458332"
       xml:space="preserve"><tspan
         style="stroke-width:0.26458332"
         y="255.59555"
         x="57.195675"
         id="tspan20"
         sodipodi:role="line" /></text>
    <g
       id="g134"
       style="font-style:normal;font-variant:normal;font-weight:normal;font-stretch:normal;font-size:16.4176445px;line-height:1.25;font-family:'Delius Unicase';-inkscape-font-specification:'Delius Unicase';letter-spacing:0px;word-spacing:0px;fill:#000000;fill-opacity:1;stroke:none;stroke-width:0.4104411"
       transform="rotate(-180,257.75816,253.88488)"
       aria-label="Software Livre Comunidade">
      <circle
         transform="scale(-1)"
         r="85.750923"
         cy="-378.88229"
         cx="-412.88483"
         id="circle948"
         style="opacity:1;vector-effect:none;fill:#ecf0f1;fill-opacity:0.99450546;stroke:none;stroke-width:2.66946769;stroke-linecap:round;stroke-linejoin:round;stroke-miterlimit:4;stroke-dasharray:none;stroke-dashoffset:0;stroke-opacity:1;marker:none;paint-order:stroke markers fill"
         inkscape:export-xdpi="96"
         inkscape:export-ydpi="96" />
      <text
         xml:space="preserve"
         style="font-style:normal;font-variant:normal;font-weight:normal;font-stretch:normal;font-size:10.58333302px;line-height:1.25;font-family:Varela;-inkscape-font-specification:Varela;letter-spacing:0px;word-spacing:0px;fill:#000000;fill-opacity:1;stroke:none;stroke-width:0.10859587"
         x="-101.44403"
         y="-314.30457"
         id="text138"
         transform="scale(-1)"><tspan
           sodipodi:role="line"
           id="tspan136"
           x="-101.44403"
           y="-314.30457"
           style="font-style:normal;font-variant:normal;font-weight:normal;font-stretch:normal;line-height:3.52777767px;font-family:Varela;-inkscape-font-specification:Varela;stroke-width:0.10859587">Software</tspan><tspan
           sodipodi:role="line"
           x="-101.44403"
           y="-301.07541"
           style="font-style:normal;font-variant:normal;font-weight:normal;font-stretch:normal;line-height:3.52777767px;font-family:Varela;-inkscape-font-specification:Varela;stroke-width:0.10859587"
           id="tspan140">Livre</tspan><tspan
           sodipodi:role="line"
           x="-101.44403"
           y="-287.84622"
           style="font-style:normal;font-variant:normal;font-weight:normal;font-stretch:normal;line-height:3.52777767px;font-family:Varela;-inkscape-font-specification:Varela;stroke-width:0.10859587"
           id="tspan142">Comunidade</tspan></text>
      <rect
         style="opacity:1;vector-effect:none;fill:#ffffff;fill-opacity:0.99450546;stroke:none;stroke-width:2.64583325;stroke-linecap:round;stroke-linejoin:round;stroke-miterlimit:4;stroke-dasharray:none;stroke-dashoffset:0;stroke-opacity:1;marker:none;paint-order:stroke markers fill"
         id="rect104"
         width="213.17857"
         height="299.35715"
         x="-516.17828"
         y="-508.22321"
         transform="scale(-1)" />
      <circle
         style="opacity:1;vector-effect:none;fill:#a4acb2;fill-opacity:0.99450546;stroke:none;stroke-width:2.62935925;stroke-linecap:round;stroke-linejoin:round;stroke-miterlimit:4;stroke-dasharray:none;stroke-dashoffset:0;stroke-opacity:1;marker:none;paint-order:stroke markers fill"
         id="path946"
         cx="-412.88483"
         cy="-378.88229"
         r="84.462509"
         transform="scale(-1)"
         inkscape:export-xdpi="96"
         inkscape:export-ydpi="96" />
      <circle
         transform="scale(-1)"
         r="81.465614"
         cy="-378.88229"
         cx="-412.88483"
         id="circle950"
         style="opacity:1;vector-effect:none;fill:#656565;fill-opacity:0.99450546;stroke:none;stroke-width:2.53606415;stroke-linecap:round;stroke-linejoin:round;stroke-miterlimit:4;stroke-dasharray:none;stroke-dashoffset:0;stroke-opacity:1;marker:none;paint-order:stroke markers fill"
         inkscape:export-xdpi="96"
         inkscape:export-ydpi="96" />
      <circle
         style="opacity:1;vector-effect:none;fill:#000000;fill-opacity:0.99450547;stroke:none;stroke-width:2.47521758;stroke-linecap:round;stroke-linejoin:round;stroke-miterlimit:4;stroke-dasharray:none;stroke-dashoffset:0;stroke-opacity:1;marker:none;paint-order:stroke markers fill"
         id="circle952"
         cx="-413.28574"
         cy="-378.88229"
         r="79.511055"
         transform="scale(-1)"
         inkscape:export-xdpi="96"
         inkscape:export-ydpi="96" />
      <image
         sodipodi:absref="/home/lacaster/GNU/SLC/design/arte.png"
         xlink:href="arte.png"
         inkscape:export-ydpi="96"
         inkscape:export-xdpi="96"
         width="211.88414"
         height="211.88414"
         preserveAspectRatio="none"
         id="image88"
         x="-516.45837"
         y="-485.00525"
         transform="scale(-1)" />
      <g
         id="g84"
         transform="translate(-0.40767619,-1.5888354)">
        <text
           transform="scale(-1)"
           id="text49"
           y="-268.19647"
           x="-448.72321"
           style="font-style:normal;font-variant:normal;font-weight:normal;font-stretch:normal;font-size:13.2213192px;line-height:1.25;font-family:Rosarivo;-inkscape-font-specification:Rosarivo;letter-spacing:0px;word-spacing:0px;fill:#000000;fill-opacity:1;stroke:none;stroke-width:0.13566431"
           xml:space="preserve"><tspan
             style="font-style:normal;font-variant:normal;font-weight:bold;font-stretch:normal;font-family:'Open Sans';-inkscape-font-specification:'Open Sans Bold';stroke-width:0.13566431"
             y="-268.19647"
             x="-448.72321"
             id="tspan47"
             sodipodi:role="line">S<tspan
   id="tspan67"
   style="font-style:normal;font-variant:normal;font-weight:600;font-stretch:normal;font-family:'Open Sans';-inkscape-font-specification:'Open Sans Semi-Bold'">oftware</tspan></tspan></text>
        <text
           xml:space="preserve"
           style="font-style:normal;font-variant:normal;font-weight:normal;font-stretch:normal;font-size:13.2213192px;line-height:1.25;font-family:Rosarivo;-inkscape-font-specification:Rosarivo;letter-spacing:0px;word-spacing:0px;fill:#000000;fill-opacity:1;stroke:none;stroke-width:0.13566431"
           x="-449.30423"
           y="-256.0629"
           id="text53"
           transform="scale(-1)"><tspan
             sodipodi:role="line"
             id="tspan51"
             x="-449.30423"
             y="-256.0629"
             style="font-style:normal;font-variant:normal;font-weight:bold;font-stretch:normal;font-family:'Open Sans';-inkscape-font-specification:'Open Sans Bold';stroke-width:0.13566431">L<tspan
   id="tspan69"
   style="font-style:normal;font-variant:normal;font-weight:600;font-stretch:normal;font-family:'Open Sans';-inkscape-font-specification:'Open Sans Semi-Bold'">ivre</tspan></tspan></text>
        <text
           transform="scale(-1)"
           id="text57"
           y="-243.88611"
           x="-448.88461"
           style="font-style:normal;font-variant:normal;font-weight:normal;font-stretch:normal;font-size:13.2213192px;line-height:1.25;font-family:Rosarivo;-inkscape-font-specification:Rosarivo;letter-spacing:0px;word-spacing:0px;fill:#000000;fill-opacity:1;stroke:none;stroke-width:0.13566431"
           xml:space="preserve"><tspan
             style="font-style:normal;font-variant:normal;font-weight:bold;font-stretch:normal;font-family:'Open Sans';-inkscape-font-specification:'Open Sans Bold';stroke-width:0.13566431"
             y="-243.88611"
             x="-448.88461"
             id="tspan55"
             sodipodi:role="line">C<tspan
   id="tspan71"
   style="font-style:normal;font-variant:normal;font-weight:600;font-stretch:normal;font-family:'Open Sans';-inkscape-font-specification:'Open Sans Semi-Bold'">omunidade</tspan></tspan></text>
        <text
           xml:space="preserve"
           style="font-style:normal;font-variant:normal;font-weight:normal;font-stretch:normal;font-size:9.44014931px;line-height:1.25;font-family:Rosarivo;-inkscape-font-specification:Rosarivo;letter-spacing:0px;word-spacing:0px;fill:#000000;fill-opacity:1;stroke:none;stroke-width:0.09686563"
           x="-448.63724"
           y="-232.56453"
           id="text61"
           transform="scale(-1)"><tspan
             sodipodi:role="line"
             id="tspan59"
             x="-448.63724"
             y="-232.56453"
             style="font-style:normal;font-variant:normal;font-weight:300;font-stretch:normal;font-family:'Open Sans';-inkscape-font-specification:'Open Sans Light';stroke-width:0.09686563">@SLComunidades</tspan></text>
      </g>
    </g>
  </g>
</svg>
